%YAML 1.1
%TAG !u! tag:unity3d.com,2011:
--- !u!1001 &4524801528355013819
PrefabInstance:
  m_ObjectHideFlags: 0
  serializedVersion: 2
  m_Modification:
    m_TransformParent: {fileID: 0}
    m_Modifications:
    - target: {fileID: 3574820286340613294, guid: 747618c2d9140634f9f48933c499681b, type: 3}
      propertyPath: InitialModule.startColor.maxColor.g
      value: 0.8117647
      objectReference: {fileID: 0}
    - target: {fileID: 5030377479491477186, guid: 747618c2d9140634f9f48933c499681b, type: 3}
      propertyPath: m_RootOrder
      value: 0
      objectReference: {fileID: 0}
    - target: {fileID: 5030377479491477186, guid: 747618c2d9140634f9f48933c499681b, type: 3}
      propertyPath: m_LocalPosition.x
      value: 0
      objectReference: {fileID: 0}
    - target: {fileID: 5030377479491477186, guid: 747618c2d9140634f9f48933c499681b, type: 3}
      propertyPath: m_LocalPosition.y
      value: 0
      objectReference: {fileID: 0}
    - target: {fileID: 5030377479491477186, guid: 747618c2d9140634f9f48933c499681b, type: 3}
      propertyPath: m_LocalPosition.z
      value: 0
      objectReference: {fileID: 0}
    - target: {fileID: 5030377479491477186, guid: 747618c2d9140634f9f48933c499681b, type: 3}
      propertyPath: m_LocalRotation.w
      value: 0.7071068
      objectReference: {fileID: 0}
    - target: {fileID: 5030377479491477186, guid: 747618c2d9140634f9f48933c499681b, type: 3}
      propertyPath: m_LocalRotation.x
      value: 0.7071068
      objectReference: {fileID: 0}
    - target: {fileID: 5030377479491477186, guid: 747618c2d9140634f9f48933c499681b, type: 3}
      propertyPath: m_LocalRotation.y
      value: 0
      objectReference: {fileID: 0}
    - target: {fileID: 5030377479491477186, guid: 747618c2d9140634f9f48933c499681b, type: 3}
      propertyPath: m_LocalRotation.z
      value: 0
      objectReference: {fileID: 0}
    - target: {fileID: 5030377479491477186, guid: 747618c2d9140634f9f48933c499681b, type: 3}
      propertyPath: m_LocalEulerAnglesHint.x
      value: 90
      objectReference: {fileID: 0}
    - target: {fileID: 5030377479491477186, guid: 747618c2d9140634f9f48933c499681b, type: 3}
      propertyPath: m_LocalEulerAnglesHint.y
      value: 0
      objectReference: {fileID: 0}
    - target: {fileID: 5030377479491477186, guid: 747618c2d9140634f9f48933c499681b, type: 3}
      propertyPath: m_LocalEulerAnglesHint.z
      value: 0
      objectReference: {fileID: 0}
    - target: {fileID: 5066763551418241403, guid: 747618c2d9140634f9f48933c499681b, type: 3}
      propertyPath: InitialModule.startColor.maxColor.b
      value: 0
      objectReference: {fileID: 0}
    - target: {fileID: 5066763551418241403, guid: 747618c2d9140634f9f48933c499681b, type: 3}
      propertyPath: InitialModule.startColor.maxColor.g
      value: 0.8117647
      objectReference: {fileID: 0}
    - target: {fileID: 7403436266748012887, guid: 747618c2d9140634f9f48933c499681b, type: 3}
      propertyPath: InitialModule.startColor.maxColor.g
      value: 0.8117647
      objectReference: {fileID: 0}
    - target: {fileID: 8214311502225930693, guid: 747618c2d9140634f9f48933c499681b, type: 3}
      propertyPath: InitialModule.startColor.maxColor.b
      value: 0
      objectReference: {fileID: 0}
    - target: {fileID: 8214311502225930693, guid: 747618c2d9140634f9f48933c499681b, type: 3}
      propertyPath: InitialModule.startColor.maxColor.g
      value: 0.80811393
      objectReference: {fileID: 0}
    - target: {fileID: 8214311502225930693, guid: 747618c2d9140634f9f48933c499681b, type: 3}
      propertyPath: InitialModule.startColor.maxColor.r
      value: 1
      objectReference: {fileID: 0}
    - target: {fileID: 8360874001005502501, guid: 747618c2d9140634f9f48933c499681b, type: 3}
      propertyPath: m_Name
      value: Mustard_Sauce_Effect
      objectReference: {fileID: 0}
    m_RemovedComponents: []
  m_SourcePrefab: {fileID: 100100000, guid: 747618c2d9140634f9f48933c499681b, type: 3}
