%YAML 1.1
%TAG !u! tag:unity3d.com,2011:
--- !u!114 &11400000
MonoBehaviour:
  m_ObjectHideFlags: 0
  m_CorrespondingSourceObject: {fileID: 0}
  m_PrefabInstance: {fileID: 0}
  m_PrefabAsset: {fileID: 0}
  m_GameObject: {fileID: 0}
  m_Enabled: 1
  m_EditorHideFlags: 0
  m_Script: {fileID: 11500000, guid: cf260597ac7f9c145be325546db48aeb, type: 3}
  m_Name: Uberwich
  m_EditorClassIdentifier: 
  RecipeName: Uberwich
  Points: 55
  Mayo: 0
  Jam: 1
  PeanutButter: 1
  Mustard: 0
  Cheese: 1
  Avocado: 1
  Bacon: 1
  Tomato: 1
  Lettuce: 1
  Tuna: 1
  Ham: 1
